module bitbucket.org/ProjectTenGo/proto-go

go 1.14

require (
	github.com/golang/protobuf v1.4.1
	golang.org/x/net v0.0.0-20200506145744-7e3656a0809f // indirect
	golang.org/x/sys v0.0.0-20200501145240-bc7a7d42d5c3 // indirect
	golang.org/x/text v0.3.2 // indirect
	google.golang.org/genproto v0.0.0-20200507105951-43844f6eee31 // indirect
	google.golang.org/grpc v1.29.1
	google.golang.org/protobuf v1.22.0
)
